{
    "swagger": "2.0",
    "info": {
        "description": "Api server for profile application",
        "title": "Profile service Api",
        "contact": {},
        "version": "1.0"
    },
    "host": "localhost:8081/profile",
    "basePath": "/",
    "paths": {
        "/profile": {
            "get": {
                "description": "Get receiver",
                "consumes": [
                    "application/json"
                ],
                "produces": [
                    "application/json"
                ],
                "tags": [
                    "receiver"
                ],
                "summary": "Get Receiver",
                "operationId": "get-receiver",
                "responses": {
                    "400": {
                        "description": "bad request",
                        "schema": {
                            "type": "string"
                        }
                    },
                    "404": {
                        "description": "bad request",
                        "schema": {
                            "type": "string"
                        }
                    },
                    "500": {
                        "description": "server error",
                        "schema": {
                            "type": "string"
                        }
                    },
                    "default": {
                        "description": "other problem",
                        "schema": {
                            "type": "string"
                        }
                    }
                }
            },
            "put": {
                "description": "Update receiver",
                "consumes": [
                    "application/json"
                ],
                "produces": [
                    "application/json"
                ],
                "tags": [
                    "receiver"
                ],
                "summary": "Update Receiver",
                "operationId": "update-receiver",
                "responses": {
                    "400": {
                        "description": "bad request",
                        "schema": {
                            "type": "string"
                        }
                    },
                    "404": {
                        "description": "bad request",
                        "schema": {
                            "type": "string"
                        }
                    },
                    "500": {
                        "description": "server error",
                        "schema": {
                            "type": "string"
                        }
                    },
                    "default": {
                        "description": "other problem",
                        "schema": {
                            "type": "string"
                        }
                    }
                }
            },
            "post": {
                "description": "Delete receiver",
                "consumes": [
                    "application/json"
                ],
                "produces": [
                    "application/json"
                ],
                "tags": [
                    "receiver"
                ],
                "summary": "Delete Receiver",
                "operationId": "delete-receiver",
                "responses": {
                    "400": {
                        "description": "bad request",
                        "schema": {
                            "type": "string"
                        }
                    },
                    "404": {
                        "description": "bad request",
                        "schema": {
                            "type": "string"
                        }
                    },
                    "500": {
                        "description": "server error",
                        "schema": {
                            "type": "string"
                        }
                    },
                    "default": {
                        "description": "other problem",
                        "schema": {
                            "type": "string"
                        }
                    }
                }
            }
        },
        "/profile/i": {
            "get": {
                "description": "Endpoint I",
                "consumes": [
                    "application/json"
                ],
                "produces": [
                    "application/json"
                ],
                "tags": [
                    "endpoints"
                ],
                "summary": "Handle I",
                "operationId": "handlei",
                "responses": {
                    "400": {
                        "description": "bad request",
                        "schema": {
                            "type": "string"
                        }
                    },
                    "404": {
                        "description": "bad request",
                        "schema": {
                            "type": "string"
                        }
                    },
                    "500": {
                        "description": "server error",
                        "schema": {
                            "type": "string"
                        }
                    },
                    "default": {
                        "description": "other problem",
                        "schema": {
                            "type": "string"
                        }
                    }
                }
            }
        },
        "/profile/upload_template": {
            "post": {
                "description": "Upload Template",
                "consumes": [
                    "application/json"
                ],
                "produces": [
                    "application/json"
                ],
                "tags": [
                    "templates"
                ],
                "summary": "UploadTemplate",
                "operationId": "uploadtemplate",
                "responses": {
                    "400": {
                        "description": "bad request",
                        "schema": {
                            "type": "string"
                        }
                    },
                    "404": {
                        "description": "bad request",
                        "schema": {
                            "type": "string"
                        }
                    },
                    "500": {
                        "description": "server error",
                        "schema": {
                            "type": "string"
                        }
                    },
                    "default": {
                        "description": "other problem",
                        "schema": {
                            "type": "string"
                        }
                    }
                }
            }
        }
    }
}